Midterm1
…
Signature: Rabin Paudel

Problem I (20pts)

Library together with the make_babynames_dist()function from the mdsr libra

ry. A snippet of the data is given below.

library(babynames)
library(mdsr)
names_df <- make_babynames_dist()
names_df

## # A tibble: 1,639,722 x 9
##     year sex   name          n   prop alive_prob count_thousands age_today
##    <dbl> <chr> <chr>     <int>  <dbl>      <dbl>           <dbl>     <dbl>
##  1  1900 F     Mary      16706 0.0526          0           16.7        114
##  2  1900 F     Helen      6343 0.0200          0            6.34       114
##  3  1900 F     Anna       6114 0.0192          0            6.11       114
##  4  1900 F     Margaret   5304 0.0167          0            5.30       114
##  5  1900 F     Ruth       4765 0.0150          0            4.76       114
##  6  1900 F     Elizabeth  4096 0.0129          0            4.10       114
##  7  1900 F     Florence   3920 0.0123          0            3.92       114
##  8  1900 F     Ethel      3896 0.0123          0            3.90       114
##  9  1900 F     Marie      3856 0.0121          0            3.86       114
## 10  1900 F     Lillian    3414 0.0107          0            3.41       114
## #  with 1,639,712 more rows, and 1 more variable: est_alive_today <dbl>
…
## `summarise()` has grouped output by 'name'. You can override using the `.groups` argument.

names_age_dist

## # A tibble: 6,889 x 7
##    name    sex       N est_num_alive q1_age median_age q3_age
##    <chr>   <chr> <int>         <dbl>  <dbl>      <dbl>  <dbl>
##  1 Aaden   M         4         2810.    5         5         6
##  2 Aaliyah F        17        48409.    6        10        13
##  3 Aaniyah F         2          206.    6         6.66      8
##  4 Aanya   F         4          709.    4         5         6
##  5 Aaralyn F         1          134.    8         8         8
##  6 Aarav   M         5         1223.    4         5         6
##  7 Aaron   F        17         2313.   27.0      32        35
##  8 Aaron   M       106       488210.   17        26        36
##  9 Aarush  M         4          620.    4         5         6
## 10 Aayan   M         2          216.    5         5         7
## #  with 6,879 more rows

names_max_iqr <- names_age_dist %>% mutate(iqr = q3_age - q1_age) %>%
filter(N >= 100) %>% group_by(sex) %>%
slice_max(iqr,n=10)
names_max_iqr

## # A tibble: 21 x 8
## # Groups:   sex [2]
##    name      sex       N est_num_alive q1_age median_age q3_age   iqr
##    <chr>     <chr> <int>         <dbl>  <dbl>      <dbl>  <dbl> <dbl>
##  1 Violet    F       111        42347.     10         62     81    71
##  2 Lila      F       110        29913.      8         46     73    65
##  3 Lillian   F       111       160554.     10         48     75    65
##  4 Stella    F       111        55076.     11         57     73    62
##  5 Genevieve F       111        42609.     17         42     77    60
##  6 Lucy      F       111        83295.     12         51     70    58
##  7 Angeline  F       109        15185.     19         44     76    57
##  8 Jewel     F       107        19430.     17         55     74    57
##  9 Cora      F       111        41809.     18         58     74    56
## 10 Ella      F       111       129546.      7         11     63    56
## #  with 11 more rows
…
Problem II (20pts)

The next problem uses the weather dataframe from the nycflights13 library.

library(nycflights13)
library(dplyr)
weather

## # A tibble: 26,115 x 15
##    origin  year month   day  hour  temp  dewp humid wind_dir wind_speed
##    <chr>  <int> <int> <int> <int> <dbl> <dbl> <dbl>    <dbl>      <dbl>
##  1 EWR     2013     1     1     1  39.0  26.1  59.4      270      10.4 
##  2 EWR     2013     1     1     2  39.0  27.0  61.6      250       8.06
##  3 EWR     2013     1     1     3  39.0  28.0  64.4      240      11.5 
##  4 EWR     2013     1     1     4  39.9  28.0  62.2      250      12.7 
##  5 EWR     2013     1     1     5  39.0  28.0  64.4      260      12.7 
##  6 EWR     2013     1     1     6  37.9  28.0  67.2      240      11.5 
##  7 EWR     2013     1     1     7  39.0  28.0  64.4      240      15.0 
##  8 EWR     2013     1     1     8  39.9  28.0  62.2      250      10.4 
##  9 EWR     2013     1     1     9  39.9  28.0  62.2      260      15.0 
## 10 EWR     2013     1     1    10  41    28.0  59.6      260      13.8 
## #  with 26,105 more rows, and 5 more variables: wind_gust <dbl>, precip <dbl>,
## #   pressure <dbl>, visib <dbl>, time_hour <dttm>
…
temperature difference between the three airports

library(nycflights13)
library(dplyr)
library(tidyr)
weather_subset <- weather %>% select(origin,year,month,day,hour,temp)
weather_temp_wide <- weather_subset %>% group_by(origin,year,month,day,hour) %>%
dplyr::summarize(temp = mean(temp)) %>%
pivot_wider(names_from = "origin", values_from = "temp") %>% ungroup()

## `summarise()` has grouped output by 'origin', 'year', 'month', 'day'. You can override using the `.groups` argument.

weather_temp_wide

## # A tibble: 8,713 x 7
##     year month   day  hour   EWR   JFK   LGA
##    <int> <int> <int> <int> <dbl> <dbl> <dbl>
##  1  2013     1     1     1  39.0  39.0  39.9
##  2  2013     1     1     2  39.0  39.0  41  
##  3  2013     1     1     3  39.0  39.9  41  
##  4  2013     1     1     4  39.9  39.9  41  
##  5  2013     1     1     5  39.0  39.0  39.9
##  6  2013     1     1     6  37.9  37.9  39.9
##  7  2013     1     1     7  39.0  39.0  39.9
##  8  2013     1     1     8  39.9  39.9  39.9
##  9  2013     1     1     9  39.9  39.9  39.9
## 10  2013     1     1    10  41    41    39.9
## #  with 8,703 more rows
…
Problem III(20pts)

This problem uses data on song rankings for billboard top 100 in the years

2000. A snippet of the data is given below.

library(tidyr)
billboard

## # A tibble: 317 x 79
##    artist   track   date.entered   wk1   wk2   wk3   wk4   wk5   wk6   wk7   wk8
##    <chr>    <chr>   <date>       <dbl> <dbl> <dbl> <dbl> <dbl> <dbl> <dbl> <dbl>
##  1 2 Pac    Baby D 2000-02-26      87    82    72    77    87    94    99    NA
##  2 2Ge+her  The Ha 2000-09-02      91    87    92    NA    NA    NA    NA    NA
##  3 3 Doors Krypto 2000-04-08      81    70    68    67    66    57    54    53
##  4 3 Doors Loser   2000-10-21      76    76    72    69    67    65    55    59
##  5 504 Boyz Wobble 2000-04-15      57    34    25    17    17    31    36    49
##  6 98^0     Give M 2000-08-19      51    39    34    26    26    19     2     2
##  7 A*Teens  Dancin 2000-07-08      97    97    96    95   100    NA    NA    NA
##  8 Aaliyah  I Don' 2000-01-29      84    62    51    41    38    35    35    38
##  9 Aaliyah  Try Ag 2000-03-18      59    53    38    28    21    18    16    14
## 10 Adams,  Open M 2000-08-26      76    76    74    69    68    67    61    58
## #  with 307 more rows, and 68 more variables: wk9 <dbl>, wk10 <dbl>,
## #   wk11 <dbl>, wk12 <dbl>, wk13 <dbl>, wk14 <dbl>, wk15 <dbl>, wk16 <dbl>,
## #   wk17 <dbl>, wk18 <dbl>, wk19 <dbl>, wk20 <dbl>, wk21 <dbl>, wk22 <dbl>,
## #   wk23 <dbl>, wk24 <dbl>, wk25 <dbl>, wk26 <dbl>, wk27 <dbl>, wk28 <dbl>,
## #   wk29 <dbl>, wk30 <dbl>, wk31 <dbl>, wk32 <dbl>, wk33 <dbl>, wk34 <dbl>,
## #   wk35 <dbl>, wk36 <dbl>, wk37 <dbl>, wk38 <dbl>, wk39 <dbl>, wk40 <dbl>,
## #   wk41 <dbl>, wk42 <dbl>, wk43 <dbl>, wk44 <dbl>, wk45 <dbl>, wk46 <dbl>,
## #   wk47 <dbl>, wk48 <dbl>, wk49 <dbl>, wk50 <dbl>, wk51 <dbl>, wk52 <dbl>,
## #   wk53 <dbl>, wk54 <dbl>, wk55 <dbl>, wk56 <dbl>, wk57 <dbl>, wk58 <dbl>,
## #   wk59 <dbl>, wk60 <dbl>, wk61 <dbl>, wk62 <dbl>, wk63 <dbl>, wk64 <dbl>,
## #   wk65 <dbl>, wk66 <lgl>, wk67 <lgl>, wk68 <lgl>, wk69 <lgl>, wk70 <lgl>,
## #   wk71 <lgl>, wk72 <lgl>, wk73 <lgl>, wk74 <lgl>, wk75 <lgl>, wk76 <lgl>

Using this data, write code to convert the data into a long format similar

to the one below.

cd <- billboard  %>% pivot_longer(cols = starts_with("wk"), names_to = "week",
                                   values_to = "rank", values_drop_na = TRUE) 
cd %>% mutate(week = as.numeric(gsub("wk", "", week)))

## # A tibble: 5,307 x 5
##    artist  track                   date.entered  week  rank
##    <chr>   <chr>                   <date>       <dbl> <dbl>
##  1 2 Pac   Baby Don't Cry (Keep... 2000-02-26       1    87
##  2 2 Pac   Baby Don't Cry (Keep... 2000-02-26       2    82
##  3 2 Pac   Baby Don't Cry (Keep... 2000-02-26       3    72
##  4 2 Pac   Baby Don't Cry (Keep... 2000-02-26       4    77
##  5 2 Pac   Baby Don't Cry (Keep... 2000-02-26       5    87
##  6 2 Pac   Baby Don't Cry (Keep... 2000-02-26       6    94
##  7 2 Pac   Baby Don't Cry (Keep... 2000-02-26       7    99
##  8 2Ge+her The Hardest Part Of ... 2000-09-02       1    91
##  9 2Ge+her The Hardest Part Of ... 2000-09-02       2    87
## 10 2Ge+her The Hardest Part Of ... 2000-09-02       3    92
## #  with 5,297 more rows
…
##  Unpacking ZIP file into 'pas216/' (1 files extracted)

##  Deleting 'pas216.zip'

## 
##  Column specification 
## cols(
##   .default = col_character()
## )
##  Use `spec()` for the full column specifications.

all_contributions

## # A tibble: 516,394 x 15
##    cmte_id amndt_ind rpt_tp transaction_pgi transaction_tp entity_tp name  city 
##    <chr>   <chr>     <chr>  <chr>           <chr>          <chr>     <chr> <chr>
##  1 C00548 N         M3     G2016           24K            CCM       BLAI JEFF
##  2 C00235 N         M3     P2014           24K            CCM       DAN  YAKI
##  3 C00235 N         M3     P2016           24K            CCM       CATH SPOK
##  4 C00235 N         M3     G2018           24K            CCM       MANC WASH
##  5 C00235 N         M3     P2016           24K            CCM       PETE WASH
##  6 C00548 N         M3     G2016           24K            CCM       KEVI BAKE
##  7 C00235 N         M3     P2016           24K            CCM       ALAN WASH
##  8 C00235 N         M3     G2016           24K            CCM       BLUM STAM
##  9 C00235 N         M3     G2016           24K            CCM       GEOR WASH
## 10 C00235 N         M3     P2016           24K            CCM       FRIE EAST
## #  with 516,384 more rows, and 7 more variables: state <chr>, zip_code <chr>,
## #   transaction_dt <date>, transaction_amt <dbl>, other_id <chr>,
## #   cand_id <chr>, tran_id <chr>
…
## # A tibble: 6 x 5
## # Groups:   cand_id, cand_name [6]
##   cand_id   cand_name           cand_pty_affiliation   sum_votes contribution
##   <chr>     <chr>               <chr>                      <dbl>        <dbl>
## 1 S0AK00121 MILLER, JOSEPH W    LIB                       544950        17929
## 2 S0AR00150 BOOZMAN, JOHN       REP                    603067424      2093385
## 3 S0CO00211 BENNET, MICHAEL F   DEM                   2426156700      4936351
## 4 S0CT00177 BLUMENTHAL, RICHARD DEM                    858415614      3363730
## 5 S0CT00250 RUSSELL, JEFF       GRE                        16713            0
## 6 S0FL00338 RUBIO, MARCO        REP                  12145999792     15781887

result

## # A tibble: 177 x 5
## # Groups:   cand_id, cand_name [177]
##    cand_id   cand_name               cand_pty_affiliati  sum_votes contribution
##    <chr>     <chr>                   <chr>                    <dbl>        <dbl>
##  1 S0AK00121 MILLER, JOSEPH W        LIB                    5.45e 5        17929
##  2 S0AR00150 BOOZMAN, JOHN           REP                    6.03e 8      2093385
##  3 S0CO00211 BENNET, MICHAEL F       DEM                    2.43e 9      4936351
##  4 S0CT00177 BLUMENTHAL, RICHARD     DEM                    8.58e 8      3363730
##  5 S0CT00250 RUSSELL, JEFF           GRE                    1.67e 4            0
##  6 S0FL00338 RUBIO, MARCO            REP                    1.21e10     15781887
##  7 S0FL00544 KNEPPER, HOWARD         REP                    5   e 1            0
##  8 S0HI00126 CARROLL, JOHN STANLEY   REP                    3.71e 5         1744
##  9 S0IA00028 GRASSLEY, CHARLES E SE REP                    1.28e 9      3032869
## 10 S0IL00261 KIRK, MARK STEVEN       REP                    5.18e 9      5269556
## #  with 167 more rows
…
